-------------------------------------------------------------------------------
Test set: com.plusitsolution.calculator.AppTest
-------------------------------------------------------------------------------
Tests run: 1, Failures: 0, Errors: 0, Skipped: 0, Time elapsed: 0.026 s - in com.plusitsolution.calculator.AppTest
