E:\Class Work\Make sure for JAVA\calculator-master\src\main\java\com\plusitsolution\calculator\controller\Calculator.java
E:\Class Work\Make sure for JAVA\calculator-master\src\main\java\com\plusitsolution\calculator\App.java
E:\Class Work\Make sure for JAVA\calculator-master\src\main\java\com\plusitsolution\calculator\config\SwaggerConfig.java
